Homicide rate, Suicide rate and GDP over 50 years
…
# calculate the sum of two continuous variables and the average of one
shg_trend <- shg_exp %>% 
  group_by(regionISO, year) %>% 
  summarise(sum_IntHomicides = sum(IntHomicides, na.rm = TRUE),
            sum_SuicideMort = sum(SuicideMort, na.rm = TRUE),
            avg_GDPcap = mean(GDPcap, na.rm = TRUE))

## `summarise()` has grouped output by 'regionISO'. You can override using the
## `.groups` argument.

# show summarized data
shg_trend

## # A tibble: 95 × 5
## # Groups:   regionISO [5]
##    regionISO  year sum_IntHomicides sum_SuicideMort avg_GDPcap
##    <chr>     <int>            <dbl>           <dbl>      <dbl>
##  1 Africa     2000             81.0            107.      4352.
##  2 Africa     2001            112.             151.      3751.
##  3 Africa     2002            108.             163       3602.
##  4 Africa     2003            128.             208.      4389.
##  5 Africa     2004            136.             226.      5062.
##  6 Africa     2005            120.             215       5052.
##  7 Africa     2006            134.             234.      5633.
##  8 Africa     2007            171.             279.      5766.
##  9 Africa     2008            194.             319.      5528.
## 10 Africa     2009            183.             312.      5802.
## # … with 85 more rows
…
